Calculating the proportion of US state borders that are coastlines | Andrew Heiss – Andrew Heiss
…
Some of these segments are thousands of miles; some are only a few miles. We can do some grouping and summarizing to collapse these into single values for each state. border_length is a state-level variable, not a border-segment-level variable, so it’s repeated in each of the rows of the combined dataset, so we only need to keep one of the values—here I keep the max, but min would work (since they’re the same).

coastline_length_by_state <- census_combined |> 
  st_drop_geometry() |>  # Stop worrying about geographic stuff
  group_by(NAME) |> 
  summarize(
    total_coastline_length = sum(coastline_length),
    total_perimeter = max(border_length),
    prop_coastline = as.numeric(total_coastline_length / total_perimeter)
  )
coastline_length_by_state
## # A tibble: 35 × 4
##    NAME                                         total_coastline_length total_perimeter prop_coastline
##    <chr>                                                           [m]             [m]          <dbl>
##  1 Alabama                                                     192355.        1907670.         0.101 
##  2 Alaska                                                    19223761.       29671399.         0.648 
##  3 American Samoa                                              175827.         172059.         1.02  
##  4 California                                                 1129738.        4191420.         0.270 
##  5 Commonwealth of the Northern Mariana Islands                261865.         327378.         0.800 
##  6 Connecticut                                                  77127.         574613.         0.134 
##  7 Delaware                                                    110370.         433573.         0.255 
##  8 Florida                                                    1842297.        3795469.         0.485 
##  9 Georgia                                                     114280.        1950980.         0.0586
## 10 Guam                                                        120734.         133668.         0.903 
## # ℹ 25 more rows
…
