How to use a histogram as a legend in {ggplot2} | Hong T.M. Chu – Hong T.M. Chu
…
bls_2016
## # A tibble: 3,219 × 12
##    laus_code       STATEFP COUNTYFP county_name_state   year  nothing labor_force employed unemployed unemp unemp_truncated unemp_diff
##    <chr>           <chr>   <chr>    <chr>               <chr> <lgl>         <dbl>    <dbl>      <dbl> <dbl>           <dbl>      <dbl>
##  1 CN0100100000000 01      001      Autauga County, AL  2016  NA            25710    24395       1315   5.1             5.1        1.1
##  2 CN0100300000000 01      003      Baldwin County, AL  2016  NA            89778    84972       4806   5.4             5.4        1.4
##  3 CN0100500000000 01      005      Barbour County, AL  2016  NA             8334     7638        696   8.4             8.4        4.4
##  4 CN0100700000000 01      007      Bibb County, AL     2016  NA             8539     7986        553   6.5             6.5        2.5
##  5 CN0100900000000 01      009      Blount County, AL   2016  NA            24380    23061       1319   5.4             5.4        1.4
##  6 CN0101100000000 01      011      Bullock County, AL  2016  NA             4785     4457        328   6.9             6.9        2.9
##  7 CN0101300000000 01      013      Butler County, AL   2016  NA             9116     8484        632   6.9             6.9        2.9
##  8 CN0101500000000 01      015      Calhoun County, AL  2016  NA            45450    42470       2980   6.6             6.6        2.6
##  9 CN0101700000000 01      017      Chambers County, AL 2016  NA            14858    14044        814   5.5             5.5        1.5
## 10 CN0101900000000 01      019      Cherokee County, AL 2016  NA            11241    10671        570   5.1             5.1        1.1
## # ℹ 3,209 more rows
…
