Apple Music Wrapped with R | Andrew Heiss – Andrew Heiss
…
Top songs

And here are the top songs:

top_played <- music_2024 |> 
  select(track_title, artist, play_count_2024) |> 
  arrange(desc(play_count_2024))

top_played
## # A tibble: 11,691 × 3
##    track_title                                   artist                                       play_count_2024
##    <chr>                                         <chr>                                                  <dbl>
##  1 love is embarrassing [Explicit]               Olivia Rodrigo                                            42
##  2 New Romantics (Taylor's Version)              Taylor Swift                                              35
##  3 Dreaming of Light                             Eydís Evensen                                             33
##  4 Espresso [Explicit]                           Sabrina Carpenter                                         32
##  5 Bewitched                                     Laufey                                                    31
##  6 Please Please Please [Explicit]               Sabrina Carpenter                                         30
##  7 Anna's Theme                                  Eydís Evensen                                             26
##  8 All You Had To Do Was Stay (Taylor's Version) Taylor Swift                                              26
##  9 Shake It Off (Taylor's Version)               Taylor Swift                                              26
## 10 The Light II                                  Eydís Evensen;Schola Cantorum Reykjavicensis              23
## # ℹ 11,681 more rows

Top artists

And the top artists:

top_artists <- music_2024 |> 
  group_by(artist) |> 
  summarize(play_count = sum(play_count_2024)) |> 
  arrange(desc(play_count))

top_artists
## # A tibble: 1,851 × 2
##    artist             play_count
##    <chr>                   <dbl>
##  1 Taylor Swift              484
##  2 Laufey                    384
##  3 Olivia Rodrigo            281
##  4 Eydís Evensen             249
##  5 Bear McCreary             234
##  6 The Decemberists          214
##  7 Hans Zimmer               188
##  8 Sabrina Carpenter         151
##  9 The Avett Brothers        149
## 10 Nicholas Britell          148
## # ℹ 1,841 more rows

Top albums

And the top albums. This is a little trickier since Music doesn’t keep track of full album listens (and I don’t think Spotify does that either), so it’s a count of the number of tracks played in the album. That means the count is biased towards longer albums like 1989 (21 tracks) or the Rings of Power soundtrack (40 tracks). But it’s still a helpful overview:

top_albums <- music_2024 |> 
  group_by(album, artist) |> 
  summarize(count_of_tracks_played_in_album = sum(play_count_2024)) |> 
  arrange(desc(count_of_tracks_played_in_album))
top_albums
## # A tibble: 2,434 × 3
## # Groups:   album [992]
##    album                                                                                     artist             count_of_tracks_played_in_album
##    <chr>                                                                                     <chr>                                        <dbl>
##  1 1989 (Taylor's Version)                                                                   Taylor Swift                                   399
##  2 GUTS (spilled) [Explicit]                                                                 Olivia Rodrigo                                 336
##  3 Bewitched: The Goddess Edition [Explicit]                                                 Laufey                                         244
##  4 The Light                                                                                 Eydís Evensen                                  216
##  5 Short n' Sweet [Explicit]                                                                 Sabrina Carpenter                              151
##  6 The Lord of the Rings: The Rings of Power (Season One: Amazon Original Series Soundtrack) Bear McCreary                                  131
##  7 Interstellar: Original Motion Picture Soundtrack (Deluxe Version)                         Hans Zimmer                                    108
##  8 The Lord of the Rings: The Rings of Power (Season 2: Amazon Original Series Soundtrack)   Bear McCreary                                  103
##  9 The Avett Brothers                                                                        The Avett Brothers                              93
## 10 8th Wonder                                                                                The National Parks                              84
## # ℹ 2,424 more rows
…
