Visualizing {dplyr}’s mutate(), summarize(), group_by(), and ungroup() with animations | Andrew Heiss – Andrew Heiss
…
By default, mutate() sticks the new column on the far right of the dataset (scroll over to the right to see body_mass_kg here):

penguins |> 
  mutate(body_mass_kg = body_mass_g / 1000)
## # A tibble: 333 × 9
##    species island    bill_length_mm bill_depth_mm flipper_length_mm body_mass_g sex     year body_mass_kg
##    <fct>   <fct>              <dbl>         <dbl>             <int>       <int> <fct>  <int>        <dbl>
##  1 Adelie  Torgersen           39.1          18.7               181        3750 male    2007         3.75
##  2 Adelie  Torgersen           39.5          17.4               186        3800 female  2007         3.8 
##  3 Adelie  Torgersen           40.3          18                 195        3250 female  2007         3.25
##  4 Adelie  Torgersen           36.7          19.3               193        3450 female  2007         3.45
##  5 Adelie  Torgersen           39.3          20.6               190        3650 male    2007         3.65
##  6 Adelie  Torgersen           38.9          17.8               181        3625 female  2007         3.62
##  7 Adelie  Torgersen           39.2          19.6               195        4675 male    2007         4.68
##  8 Adelie  Torgersen           41.1          17.6               182        3200 female  2007         3.2 
##  9 Adelie  Torgersen           38.6          21.2               191        3800 male    2007         3.8 
## 10 Adelie  Torgersen           34.6          21.1               198        4400 male    2007         4.4 
## # ℹ 323 more rows

We can also control where the new column shows up with either the .before or .after argument:

penguins |> 
  mutate(
    body_mass_kg = body_mass_g / 1000,
    .after = island
  )
## # A tibble: 333 × 9
##    species island    body_mass_kg bill_length_mm bill_depth_mm flipper_length_mm body_mass_g sex     year
##    <fct>   <fct>            <dbl>          <dbl>         <dbl>             <int>       <int> <fct>  <int>
##  1 Adelie  Torgersen         3.75           39.1          18.7               181        3750 male    2007
##  2 Adelie  Torgersen         3.8            39.5          17.4               186        3800 female  2007
##  3 Adelie  Torgersen         3.25           40.3          18                 195        3250 female  2007
##  4 Adelie  Torgersen         3.45           36.7          19.3               193        3450 female  2007
##  5 Adelie  Torgersen         3.65           39.3          20.6               190        3650 male    2007
##  6 Adelie  Torgersen         3.62           38.9          17.8               181        3625 female  2007
##  7 Adelie  Torgersen         4.68           39.2          19.6               195        4675 male    2007
##  8 Adelie  Torgersen         3.2            41.1          17.6               182        3200 female  2007
##  9 Adelie  Torgersen         3.8            38.6          21.2               191        3800 male    2007
## 10 Adelie  Torgersen         4.4            34.6          21.1               198        4400 male    2007
## # ℹ 323 more rows
…
Importantly, grouping doesn’t actually change the order of the rows in the dataset. If we use group_by() and look at your dataset, it’ll still be in the existing order. The only sign that the data is invisibly grouped is a little Groups: sex [2] note at the top of the output.

penguins |> 
  group_by(sex)
## # A tibble: 333 × 8
## # Groups:   sex [2]
##    species island    bill_length_mm bill_depth_mm flipper_length_mm body_mass_g sex     year
##    <fct>   <fct>              <dbl>         <dbl>             <int>       <int> <fct>  <int>
##  1 Adelie  Torgersen           39.1          18.7               181        3750 male    2007
##  2 Adelie  Torgersen           39.5          17.4               186        3800 female  2007
##  3 Adelie  Torgersen           40.3          18                 195        3250 female  2007
##  4 Adelie  Torgersen           36.7          19.3               193        3450 female  2007
##  5 Adelie  Torgersen           39.3          20.6               190        3650 male    2007
##  6 Adelie  Torgersen           38.9          17.8               181        3625 female  2007
##  7 Adelie  Torgersen           39.2          19.6               195        4675 male    2007
##  8 Adelie  Torgersen           41.1          17.6               182        3200 female  2007
##  9 Adelie  Torgersen           38.6          21.2               191        3800 male    2007
## 10 Adelie  Torgersen           34.6          21.1               198        4400 male    2007
## # ℹ 323 more rows
…
Panel data (or time-series cross-sectional data, like the gapminder dataset) is good example of a situation where grouping and mutating is important. For example, we can use lag() to create a new column (lifeExp_previous) that shows the previous year’s life expectancy.5

5 This is super common with models where you time-shifted variables, like predicting an outcome based on covariates in the previous year.

library(gapminder)

gapminder_smaller <- gapminder |> 
  filter(year %in% c(1997, 2002, 2007))  # Only show a few years
  
gapminder_smaller |> 
  mutate(lifeExp_previous = lag(lifeExp), .after = lifeExp)
## # A tibble: 426 × 7
##    country     continent  year lifeExp lifeExp_previous      pop gdpPercap
##    <fct>       <fct>     <int>   <dbl>            <dbl>    <int>     <dbl>
##  1 Afghanistan Asia       1997    41.8             NA   22227415      635.
##  2 Afghanistan Asia       2002    42.1             41.8 25268405      727.
##  3 Afghanistan Asia       2007    43.8             42.1 31889923      975.
##  4 Albania     Europe     1997    73.0             43.8  3428038     3193.
##  5 Albania     Europe     2002    75.7             73.0  3508512     4604.
##  6 Albania     Europe     2007    76.4             75.7  3600523     5937.
##  7 Algeria     Africa     1997    69.2             76.4 29072015     4797.
##  8 Algeria     Africa     2002    71.0             69.2 31287142     5288.
##  9 Algeria     Africa     2007    72.3             71.0 33333216     6223.
## 10 Angola      Africa     1997    41.0             72.3  9875024     2277.
## # ℹ 416 more rows

Afghanistan in 1997 has a lagged life expectancy of NA, but that’s fine and to be expected—there’s no row for it to look at and copy the value (i.e. there’s no Afghanistan 1992 row). Afghanistan’s lagged life expectancy in 2002 is the same value as the actual life expectancy in 1997. Great, it worked!6

6 Technically this isn’t a one-year lag; this is a five-year lag, since the data is spaced every 5 years.

But look at Albania’s lagged life expectancy in 1997—it’s 43.84, which is actually Afghanistan’s 2007 life expectancy! Lagged values bleed across countries here.

If we group the data by country before lagging, though, the lagging happens within each of the subsets, so the first year of every country is missing (since there’s no previous year to look at). Now every country’s 1997 value is NA, since the new column was created separately in each of the smaller behind-the-scenes country-specific datasets:

gapminder_smaller |> 
  group_by(country) |> 
  mutate(lifeExp_previous = lag(lifeExp), .after = lifeExp)
## # A tibble: 426 × 7
## # Groups:   country [142]
##    country     continent  year lifeExp lifeExp_previous      pop gdpPercap
##    <fct>       <fct>     <int>   <dbl>            <dbl>    <int>     <dbl>
##  1 Afghanistan Asia       1997    41.8             NA   22227415      635.
##  2 Afghanistan Asia       2002    42.1             41.8 25268405      727.
##  3 Afghanistan Asia       2007    43.8             42.1 31889923      975.
##  4 Albania     Europe     1997    73.0             NA    3428038     3193.
##  5 Albania     Europe     2002    75.7             73.0  3508512     4604.
##  6 Albania     Europe     2007    76.4             75.7  3600523     5937.
##  7 Algeria     Africa     1997    69.2             NA   29072015     4797.
##  8 Algeria     Africa     2002    71.0             69.2 31287142     5288.
##  9 Algeria     Africa     2007    72.3             71.0 33333216     6223.
## 10 Angola      Africa     1997    41.0             NA    9875024     2277.
## # ℹ 416 more rows
…
…or by any other column.

Grouping by numeric columns

One common mistake is to feed a numeric columns into group_by(), like this:

penguins |> 
  group_by(flipper_length_mm) |> 
  summarize(
    avg_bill_length = mean(bill_length_mm),
    total_weight = sum(body_mass_g),
    n_penguins = n()
  )
## # A tibble: 54 × 4
##    flipper_length_mm avg_bill_length total_weight n_penguins
##                <int>           <dbl>        <int>      <int>
##  1               172            37.9         3150          1
##  2               174            37.8         3400          1
##  3               176            40.2         3450          1
##  4               178            39.0        13300          4
##  5               180            39.8        14900          4
##  6               181            41.5        24000          7
##  7               182            39.6         9775          3
##  8               183            39.2         6625          2
##  9               184            37.9        25650          7
## 10               185            38.0        31550          9
## # ℹ 44 more rows
…
