How to use Bayesian propensity scores and inverse probability weights | Andrew Heiss – Andrew Heiss
…
pred_probs_nested <- pred_probs_chains %>% 
  # Convert this matrix to a data frame
  as_tibble(.name_repair = "unique") %>% 
  # Add a column for the draw number
  mutate(draw = 1:n()) %>% 
  # Make this long so that each draw gets its own row
  pivot_longer(-draw, names_to = "row", values_to = "prob") %>% 
  # Clean up the draw number 
  mutate(row = as.numeric(str_remove(row, "..."))) %>% 
  # Group by draw and nest all the scores in a cell
  group_by(draw) %>% 
  nest() %>% 
  ungroup()
pred_probs_nested
## # A tibble: 2,000 × 2
##     draw data                
##    <int> <list>              
##  1     1 <tibble [1,752 × 2]>
##  2     2 <tibble [1,752 × 2]>
##  3     3 <tibble [1,752 × 2]>
##  4     4 <tibble [1,752 × 2]>
##  5     5 <tibble [1,752 × 2]>
##  6     6 <tibble [1,752 × 2]>
##  7     7 <tibble [1,752 × 2]>
##  8     8 <tibble [1,752 × 2]>
##  9     9 <tibble [1,752 × 2]>
## 10    10 <tibble [1,752 × 2]>
## # ℹ 1,990 more rows
…
    # Create outcome model with this iteration of weights
    model <- lm(malaria_risk ~ net, data = df, weights = iptw)
  })) %>% 
  # Extract results
  mutate(tidied = map(outcome_model, ~tidy(.)),
         ate = map_dbl(tidied, ~filter(., term == "netTRUE") %>% pull(estimate)),
         ate_se = map_dbl(tidied, ~filter(., term == "netTRUE") %>% pull(std.error)))
outcome_models
## # A tibble: 2,000 × 6
##     draw data                 outcome_model tidied              ate ate_se
##    <int> <list>               <list>        <list>            <dbl>  <dbl>
##  1     1 <tibble [1,752 × 2]> <lm>          <tibble [2 × 5]>  -9.71  0.662
##  2     2 <tibble [1,752 × 2]> <lm>          <tibble [2 × 5]>  -9.37  0.665
##  3     3 <tibble [1,752 × 2]> <lm>          <tibble [2 × 5]>  -9.15  0.670
##  4     4 <tibble [1,752 × 2]> <lm>          <tibble [2 × 5]>  -9.89  0.665
##  5     5 <tibble [1,752 × 2]> <lm>          <tibble [2 × 5]>  -9.40  0.669
##  6     6 <tibble [1,752 × 2]> <lm>          <tibble [2 × 5]> -10.8   0.654
##  7     7 <tibble [1,752 × 2]> <lm>          <tibble [2 × 5]>  -9.03  0.669
##  8     8 <tibble [1,752 × 2]> <lm>          <tibble [2 × 5]>  -8.58  0.673
##  9     9 <tibble [1,752 × 2]> <lm>          <tibble [2 × 5]>  -9.67  0.664
## 10    10 <tibble [1,752 × 2]> <lm>          <tibble [2 × 5]> -11.0   0.651
## # … with 1,990 more rows
…
