Marginal structural models for panel data with GEE and multilevel models | Hong T.M. Chu – Hong T.M. Chu
…
They are!

Since we know it works, let’s generate a big dataset for playing with multi-year MSMs, this time with noise:

set.seed(1234)

# Make data for the first year
df_first_year <- expand_grid(id = 1:2000, y = 1) %>% 
  mutate(c = rnorm(n(), 0, 1),
         t = (0.1 * c) + rnorm(n(), 0, sqrt(0.99)),
         d = (0.1 * c) + (0.4 * t) + rnorm(n(), 0, sqrt(0.822)))
df_first_year
## # A tibble: 2,000 × 5
##       id     y      c        t       d
##    <int> <dbl>  <dbl>    <dbl>   <dbl>
##  1     1     1 -1.21  -1.09    -1.43  
##  2     2     1  0.277 -0.0714  -0.739 
##  3     3     1  1.08  -0.00174 -0.0686
##  4     4     1 -2.35   0.952    1.88  
##  5     5     1  0.429 -1.60     0.0373
##  6     6     1  0.506 -0.990    0.535 
##  7     7     1 -0.575 -1.79    -0.889 
##  8     8     1 -0.547  0.456   -1.14  
##  9     9     1 -0.564 -0.500    0.386 
## 10    10     1 -0.890 -1.92    -1.04  
## # ℹ 1,990 more rows
…
