Visualizing the differences between Bayesian posterior predictions, linear predictions, and the expectation of posterior predictions | Andrew Heiss – Andrew Heiss
…
The most obvious difference between these different posterior predictions is the range of predictions. For posterior_linpred() and posterior_epred(), the standard error is tiny and the range of plausible predicted values is really narrow. For posterior_predict(), the standard error is substantially bigger, and the corresponding range of predicted values is huge.

To understand why, let’s explore the math going on behind the scenes in these functions. Both posterior_linpred() and posterior_epred() correspond to the \(\mu\) part of the model. They’re the average penguin weight as predicted by the linear model (hence linpred; linear predictor). We can see this if we plug a 201 mm flipper length into each row of the posterior and calculate mu by hand with \(\beta_0 + (\beta_1 \times 201)\):

linpred_manual <- model_normal |> 
  spread_draws(b_Intercept, b_flipper_length_mm) |> 
  mutate(mu = b_Intercept + 
           (b_flipper_length_mm * penguins_avg_flipper$flipper_length_mm))
linpred_manual
## # A tibble: 4,000 × 6
##    .chain .iteration .draw b_Intercept b_flipper_length_mm    mu
##     <int>      <int> <int>       <dbl>               <dbl> <dbl>
##  1      1          1     1      -6152.                51.5 4204.
##  2      1          2     2      -5872                 50.2 4221.
##  3      1          3     3      -6263.                52.1 4202.
##  4      1          4     4      -6066.                51.1 4213.
##  5      1          5     5      -5740.                49.4 4191.
##  6      1          6     6      -5678.                49.2 4213.
##  7      1          7     7      -6107.                51.1 4160.
##  8      1          8     8      -5422.                48.0 4235.
##  9      1          9     9      -6303.                52.1 4177.
## 10      1         10    10      -6193.                51.6 4184.
## # ℹ 3,990 more rows
…
The results from posterior_predict(), on the other hand, correspond to the \(y\) part of the model. Officially, they are draws from a random normal distribution using both the estimated \(\mu\) and the estimated \(\sigma\). These results contain the full uncertainty of the posterior distribution of penguin weight. To help with the intuition, we can do the same thing by hand when plugging in a 201 mm flipper length:

set.seed(12345)  # To get the same results as posterior_predict() from earlier

postpred_manual <- model_normal |> 
  spread_draws(b_Intercept, b_flipper_length_mm, sigma) |> 
  mutate(mu = b_Intercept + 
           (b_flipper_length_mm * 
              penguins_avg_flipper$flipper_length_mm),  # This is posterior_linpred()
         y_new = rnorm(n(), mean = mu, sd = sigma))  # This is posterior_predict()

postpred_manual |> 
  select(.draw:y_new)
## # A tibble: 4,000 × 6
##    .draw b_Intercept b_flipper_length_mm sigma    mu y_new
##    <int>       <dbl>               <dbl> <dbl> <dbl> <dbl>
##  1     1      -6152.                51.5  384. 4204. 4429.
##  2     2      -5872                 50.2  401. 4221. 4506.
##  3     3      -6263.                52.1  390. 4202. 4159.
##  4     4      -6066.                51.1  409. 4213. 4027.
##  5     5      -5740.                49.4  362. 4191. 4411.
##  6     6      -5678.                49.2  393. 4213. 3499.
##  7     7      -6107.                51.1  417. 4160. 4423.
##  8     8      -5422.                48.0  351. 4235. 4138.
##  9     9      -6303.                52.1  426. 4177. 4055.
## 10    10      -6193.                51.6  426. 4184. 3793.
## # ℹ 3,990 more rows
…
