Making Middle Earth maps with R | Andrew Heiss – Andrew Heiss
…
# https://www.census.gov/geographies/mapping-files/time-series/geo/cartographic-boundary.html
us_states <- read_sf("data/cb_2022_us_state_20m/cb_2022_us_state_20m.shp")

# Just show some of the columns
us_states %>% 
  select(STATEFP, STUSPS, NAME, geometry)
## Simple feature collection with 52 features and 3 fields
## Geometry type: MULTIPOLYGON
## Dimension:     XY
## Bounding box:  xmin: -179 ymin: 17.9 xmax: 180 ymax: 71.4
## Geodetic CRS:  NAD83
## # A tibble: 52 × 4
##    STATEFP STUSPS NAME                                                                                      geometry
##    <chr>   <chr>  <chr>                                                                           <MULTIPOLYGON [°]>
##  1 48      TX     Texas      (((-107 31.9, -107 32, -107 32, -107 32, -106 32, -106 32, -106 32, -106 32, -105 32...
##  2 06      CA     California (((-119 33.5, -118 33.5, -118 33.4, -118 33.4, -118 33.3, -118 33.3, -118 33.3, -118...
##  3 21      KY     Kentucky   (((-89.5 36.6, -89.5 36.6, -89.4 36.6, -89.4 36.6, -89.3 36.6, -89.3 36.6, -89.3 36....
##  4 13      GA     Georgia    (((-85.6 35, -85.5 35, -85.4 35, -85.4 35, -85.3 35, -85.3 35, -85 35, -85 35, -85 3...
##  5 55      WI     Wisconsin  (((-86.9 45.4, -86.8 45.5, -86.8 45.4, -86.9 45.4, -86.9 45.3, -87 45.4, -86.9 45.4)...
##  6 41      OR     Oregon     (((-125 42.8, -124 43, -124 43, -124 43.1, -124 43.2, -124 43.2, -124 43.3, -124 43....
##  7 29      MO     Missouri   (((-95.8 40.6, -95.5 40.6, -95.4 40.6, -95.3 40.6, -95.2 40.6, -95.1 40.6, -94.9 40....
##  8 51      VA     Virginia   (((-76 37.3, -76 37.4, -76 37.4, -75.9 37.5, -75.9 37.6, -75.9 37.6, -75.9 37.7, -75...
##  9 47      TN     Tennessee  (((-90.3 35, -90.3 35, -90.2 35.1, -90.2 35.1, -90.2 35.1, -90.1 35.1, -90.1 35.2, -...
## 10 22      LA     Louisiana  (((-94 32.7, -94 32.8, -94 32.9, -94 33, -93.8 33, -93.8 33, -93.7 33, -93.5 33, -93...
## # ℹ 42 more rows
…
See this for a short overview of projections and coordinate reference systems (CRS). You can look up their ID numbers here.

Code
us_states <- us_states %>% 
  st_transform(st_crs("EPSG:4326"))  # WGS 84

# Just show some of the columns
us_states %>% 
  select(STATEFP, STUSPS, NAME, geometry)
## Simple feature collection with 52 features and 3 fields
## Geometry type: MULTIPOLYGON
## Dimension:     XY
## Bounding box:  xmin: -179 ymin: 17.9 xmax: 180 ymax: 71.4
## Geodetic CRS:  WGS 84
## # A tibble: 52 × 4
##    STATEFP STUSPS NAME                                                                                      geometry
##    <chr>   <chr>  <chr>                                                                           <MULTIPOLYGON [°]>
##  1 48      TX     Texas      (((-107 31.9, -107 32, -107 32, -107 32, -106 32, -106 32, -106 32, -106 32, -105 32...
##  2 06      CA     California (((-119 33.5, -118 33.5, -118 33.4, -118 33.4, -118 33.3, -118 33.3, -118 33.3, -118...
##  3 21      KY     Kentucky   (((-89.5 36.6, -89.5 36.6, -89.4 36.6, -89.4 36.6, -89.3 36.6, -89.3 36.6, -89.3 36....
##  4 13      GA     Georgia    (((-85.6 35, -85.5 35, -85.4 35, -85.4 35, -85.3 35, -85.3 35, -85 35, -85 35, -85 3...
##  5 55      WI     Wisconsin  (((-86.9 45.4, -86.8 45.5, -86.8 45.4, -86.9 45.4, -86.9 45.3, -87 45.4, -86.9 45.4)...
##  6 41      OR     Oregon     (((-125 42.8, -124 43, -124 43, -124 43.1, -124 43.2, -124 43.2, -124 43.3, -124 43....
##  7 29      MO     Missouri   (((-95.8 40.6, -95.5 40.6, -95.4 40.6, -95.3 40.6, -95.2 40.6, -95.1 40.6, -94.9 40....
##  8 51      VA     Virginia   (((-76 37.3, -76 37.4, -76 37.4, -75.9 37.5, -75.9 37.6, -75.9 37.6, -75.9 37.7, -75...
##  9 47      TN     Tennessee  (((-90.3 35, -90.3 35, -90.2 35.1, -90.2 35.1, -90.2 35.1, -90.1 35.1, -90.1 35.2, -...
## 10 22      LA     Louisiana  (((-94 32.7, -94 32.8, -94 32.9, -94 33, -93.8 33, -93.8 33, -93.7 33, -93.5 33, -93...
## # ℹ 42 more rows
…
