The ultimate practical guide to conjoint analysis with R | Andrew Heiss – Andrew Heiss
…
First we’ll calculate the average marginal component effects (AMCEs), which are the partial derivatives (or coefficients) from a linear regression model. These represent the causal effect of switching from some reference level to a level of interest, while holding everything else constant.

Automatic estimates with cregg::amce()

The amce() function from {cregg} calculates AMCEs automatically and returns them in a nice tidy data frame:

model_candidate_amce <- amce(
  candidate,
  selected ~ atmilitary + atreligion + ated +
    atprof + atinc + atrace + atage + atmale,
  id = ~resID
)

model_candidate_amce %>% as_tibble()
## # A tibble: 40 × 10
##    outcome  statistic feature          level                  estimate std.error      z            p   lower   upper
##    <chr>    <chr>     <fct>            <fct>                     <dbl>     <dbl>  <dbl>        <dbl>   <dbl>   <dbl>
##  1 selected amce      Military Service Did Not Serve            0        NA      NA     NA           NA      NA     
##  2 selected amce      Military Service Served                   0.0873    0.0177  4.95   0.000000761  0.0527  0.122 
##  3 selected amce      Religion         None                     0        NA      NA     NA           NA      NA     
##  4 selected amce      Religion         Jewish                  -0.0373    0.0263 -1.42   0.156       -0.0889  0.0143
##  5 selected amce      Religion         Catholic                -0.0156    0.0278 -0.561  0.575       -0.0702  0.0389
##  6 selected amce      Religion         Mainline protestant     -0.0149    0.0308 -0.484  0.629       -0.0753  0.0455
##  7 selected amce      Religion         Evangelical protestant  -0.117     0.0309 -3.78   0.000157    -0.178  -0.0563
##  8 selected amce      Religion         Mormon                  -0.137     0.0307 -4.46   0.00000838  -0.197  -0.0767
##  9 selected amce      College          No BA                    0        NA      NA     NA           NA      NA     
## 10 selected amce      College          Baptist college          0.139     0.0289  4.82   0.00000143   0.0827  0.196 
## # ℹ 30 more rows
…
candidate_svy_design <- svydesign(
  ids = ~resID,
  weights = ~1,
  data = candidate
)

model_svy <- svyglm(
  selected ~ atmilitary + atreligion + ated +
    atprof + atinc + atrace + atage + atmale,
  design = candidate_svy_design
)

tidy(model_svy)
## # A tibble: 33 × 5
##    term                             estimate std.error statistic  p.value
##    <chr>                               <dbl>     <dbl>     <dbl>    <dbl>
##  1 (Intercept)                        0.397     0.0484     8.20  9.18e-15
##  2 atmilitaryServed                   0.0873    0.0177     4.95  1.32e- 6
##  3 atreligionJewish                  -0.0373    0.0263    -1.42  1.58e- 1
##  4 atreligionCatholic                -0.0156    0.0278    -0.561 5.75e- 1
##  5 atreligionMainline protestant     -0.0149    0.0308    -0.484 6.29e- 1
##  6 atreligionEvangelical protestant  -0.117     0.0309    -3.78  1.92e- 4
##  7 atreligionMormon                  -0.137     0.0307    -4.46  1.22e- 5
##  8 atedBaptist college                0.139     0.0289     4.82  2.36e- 6
##  9 atedCommunity college              0.150     0.0290     5.17  4.44e- 7
## 10 atedState university               0.188     0.0277     6.77  7.80e-11
## # ℹ 23 more rows
…
# Combine the estimates from cregg::amce() with the estimates from
# survey::svglm() just to check that they're the same (they are)
amce_estimates <- model_candidate_amce %>% 
  as_tibble() %>% 
  drop_na(std.error) %>% 
  select(level, amce_estimate = estimate, amce_std.error = std.error)

svy_estimates <- model_svy %>% 
  tidy() %>% 
  filter(term != "(Intercept)") %>% 
  select(svy_estimate = estimate, svy_std.error = std.error)

bind_cols(amce_estimates, svy_estimates)
## # A tibble: 32 × 5
##    level                  amce_estimate amce_std.error svy_estimate svy_std.error
##    <fct>                          <dbl>          <dbl>        <dbl>         <dbl>
##  1 Served                        0.0873         0.0177       0.0873        0.0177
##  2 Jewish                       -0.0373         0.0263      -0.0373        0.0263
##  3 Catholic                     -0.0156         0.0278      -0.0156        0.0278
##  4 Mainline protestant          -0.0149         0.0308      -0.0149        0.0308
##  5 Evangelical protestant       -0.117          0.0309      -0.117         0.0309
##  6 Mormon                       -0.137          0.0307      -0.137         0.0307
##  7 Baptist college               0.139          0.0289       0.139         0.0289
##  8 Community college             0.150          0.0290       0.150         0.0290
##  9 State university              0.188          0.0277       0.188         0.0277
## 10 Small college                 0.178          0.0273       0.178         0.0273
## # ℹ 22 more rows
…
At one point, {cregg} supported this by using the {margins} package (which makes sense—Thomas Leeper developed both {cregg} and {margins}), but starting with {cregg} version 0.1.14, the {margins} support disappeared, leaving only support for OLS linear probability models.

We can use the {marginaleffects} package (the successor to {margins}) to calculate the average marginal effects/slopes for each of these effects. Here we’ll just hold all the predictors at their means (but there are a ton of different estimands we could calculate). In this case they’re the same as the raw coefficients, since it’s just a linear model:

mfx_svy <- model_svy %>% 
  avg_slopes(newdata = "mean")

# Combine the average marginal effects with the original coefficients just to
# check that they're the same (they are)
mfx_svy %>% 
  select(contrast, mfx_estimate = estimate, mfx_std.error = std.error) %>% 
  cbind(svy_estimates) %>% 
  as_tibble()
## # A tibble: 32 × 5
##    contrast                      mfx_estimate mfx_std.error svy_estimate svy_std.error
##    <chr>                                <dbl>         <dbl>        <dbl>         <dbl>
##  1 45 - 36                            0.0259         0.0295       0.0873        0.0177
##  2 52 - 36                            0.0236         0.0303      -0.0373        0.0263
##  3 60 - 36                            0.00414        0.0288      -0.0156        0.0278
##  4 68 - 36                           -0.0639         0.0294      -0.0149        0.0308
##  5 75 - 36                           -0.146          0.0289      -0.117         0.0309
##  6 Baptist college - No BA            0.139          0.0289      -0.137         0.0307
##  7 Community college - No BA          0.150          0.0290       0.139         0.0289
##  8 Ivy League university - No BA      0.269          0.0291       0.150         0.0290
##  9 Small college - No BA              0.178          0.0273       0.188         0.0277
## 10 State university - No BA           0.188          0.0277       0.178         0.0273
## # ℹ 22 more rows
…
What if you don’t want use a linear probability model and instead want to use a different family like logistic regression (which treats the outcome as actual 0 and 1 categories instead of numbers)? Or what if you have 3+ possible choices for outcomes and need to use a multinomial logistic regression model? We can still calculate AMCEs, but we can’t use raw regression coefficients. Instead we have to calculate response-scale (i.e. probability scale) marginal effects.

Let’s make a logistic regression model:

model_logit <- survey::svyglm(
  selected ~ atmilitary + atreligion + ated +
    atprof + atinc + atrace + atage + atmale,
  design = candidate_svy_design,
  family = binomial(link = "logit")
)

Check out those sweet sweet uninterpretable log odds:

tidy(model_logit)
## # A tibble: 33 × 5
##    term                             estimate std.error statistic  p.value
##    <chr>                               <dbl>     <dbl>     <dbl>    <dbl>
##  1 (Intercept)                       -0.466     0.215     -2.17  3.07e- 2
##  2 atmilitaryServed                   0.385     0.0775     4.96  1.22e- 6
##  3 atreligionJewish                  -0.162     0.116     -1.40  1.62e- 1
##  4 atreligionCatholic                -0.0651    0.123     -0.531 5.96e- 1
##  5 atreligionMainline protestant     -0.0634    0.136     -0.468 6.40e- 1
##  6 atreligionEvangelical protestant  -0.510     0.137     -3.72  2.44e- 4
##  7 atreligionMormon                  -0.600     0.137     -4.39  1.64e- 5
##  8 atedBaptist college                0.619     0.131      4.74  3.43e- 6
##  9 atedCommunity college              0.663     0.131      5.06  7.73e- 7
## 10 atedState university               0.828     0.126      6.57  2.43e-10
## # ℹ 23 more rows

We can convert these log odds into probability-scale marginal effects with slopes() or avg_slopes() from {marginaleffects}. Conceptually this involves plugging in different covariate values—here we’re plugging in all the original values in the data into the model and then collapsing the predictions into averages. (Again, see this and this for more details about average marginal effects/slopes.)

mfx_logit <- model_logit %>% 
  avg_slopes()

mfx_logit %>% as_tibble()
## # A tibble: 32 × 8
##    term  contrast                      estimate std.error statistic  p.value conf.low conf.high
##    <chr> <chr>                            <dbl>     <dbl>     <dbl>    <dbl>    <dbl>     <dbl>
##  1 atage 45 - 36                        0.0258     0.0296     0.874 3.82e- 1  -0.0321   0.0838 
##  2 atage 52 - 36                        0.0232     0.0303     0.765 4.44e- 1  -0.0362   0.0826 
##  3 atage 60 - 36                        0.00406    0.0289     0.141 8.88e- 1  -0.0526   0.0607 
##  4 atage 68 - 36                       -0.0639     0.0294    -2.17  3.00e- 2  -0.122   -0.00619
##  5 atage 75 - 36                       -0.145      0.0289    -5.03  4.86e- 7  -0.202   -0.0888 
##  6 ated  Baptist college - No BA        0.140      0.0290     4.82  1.45e- 6   0.0828   0.196  
##  7 ated  Community college - No BA      0.150      0.0291     5.15  2.56e- 7   0.0928   0.207  
##  8 ated  Ivy League university - No BA  0.269      0.0291     9.26  2.11e-20   0.212    0.326  
##  9 ated  Small college - No BA          0.178      0.0274     6.50  8.07e-11   0.124    0.231  
## 10 ated  State university - No BA       0.188      0.0277     6.80  1.04e-11   0.134    0.243  
## # ℹ 22 more rows
…
Next we’ll calculate marginal means for these different attributes and levels, which are conditional averages and not regression coefficients. These are descriptive estimands/quantities of interest and they don’t rely on any reference category or baseline level.

Automatic estimates with cregg::mm()

The mm() function from {cregg} calculates marginal means automatically and returns them in a nice tidy data frame. I include the package namespace prefix here (i.e. cregg::mm() instead of just mm()) because I’ve loaded the {brms} package and it has its own mm() function that’s used for creating multi-membership grouping terms (whatever those are).

candidate_mms_auto <- cregg::mm(
  candidate,
  selected ~ atmilitary + atreligion + ated +
    atprof + atinc + atrace + atage + atmale,
  id = ~ resID
)

candidate_mms_auto %>% as_tibble()
## # A tibble: 40 × 10
##    outcome  statistic feature          level                  estimate std.error     z         p lower upper
##    <chr>    <chr>     <fct>            <fct>                     <dbl>     <dbl> <dbl>     <dbl> <dbl> <dbl>
##  1 selected mm        Military Service Did Not Serve             0.458   0.00907  50.5 0         0.440 0.475
##  2 selected mm        Military Service Served                    0.543   0.00914  59.4 0         0.525 0.560
##  3 selected mm        Religion         None                      0.556   0.0200   27.8 1.88e-170 0.517 0.595
##  4 selected mm        Religion         Jewish                    0.520   0.0186   28.0 2.77e-172 0.484 0.557
##  5 selected mm        Religion         Catholic                  0.526   0.0177   29.7 2.82e-193 0.491 0.560
##  6 selected mm        Religion         Mainline protestant       0.543   0.0194   28.0 3.93e-172 0.505 0.581
##  7 selected mm        Religion         Evangelical protestant    0.437   0.0200   21.9 4.11e-106 0.398 0.476
##  8 selected mm        Religion         Mormon                    0.417   0.0194   21.5 7.40e-103 0.379 0.455
##  9 selected mm        College          No BA                     0.340   0.0186   18.3 1.12e- 74 0.303 0.376
## 10 selected mm        College          Baptist college           0.482   0.0200   24.1 3.89e-128 0.443 0.521
## # ℹ 30 more rows
…
The results are identical to what we find when using group_by() %>% summarize(), but

the standard errors are correct (and actually present; we’d need to calculate those on our own with summarize() and that’s a pain), and

we have the ability to use other extra {marginaleffects} things like hypothesis tests, counterfactual estimates, p-value adjustments for multiple comparisons, clustered robust standard errors, and so on

marginal_means()

group_by() %>% summarize()

mm_mfx %>% as_tibble()
## # A tibble: 40 × 8
##    term       value                  estimate std.error statistic   p.value conf.low conf.high
##    <chr>      <fct>                     <dbl>     <dbl>     <dbl>     <dbl>    <dbl>     <dbl>
##  1 atmilitary Did Not Serve             0.458   0.00913      50.1 0            0.440     0.476
##  2 atmilitary Served                    0.543   0.00928      58.4 0            0.524     0.561
##  3 atreligion None                      0.556   0.0195       28.5 1.64e-178    0.518     0.594
##  4 atreligion Jewish                    0.520   0.0175       29.7 1.90e-194    0.486     0.554
##  5 atreligion Catholic                  0.526   0.0177       29.7 3.14e-193    0.491     0.560
##  6 atreligion Mainline protestant       0.543   0.0184       29.6 1.86e-192    0.507     0.579
##  7 atreligion Evangelical protestant    0.437   0.0198       22.0 1.07e-107    0.398     0.475
##  8 atreligion Mormon                    0.417   0.0189       22.1 8.22e-108    0.380     0.454
##  9 ated       No BA                     0.340   0.0184       18.5 5.02e- 76    0.304     0.376
## 10 ated       Baptist college           0.482   0.0198       24.4 1.63e-131    0.443     0.521
## # ℹ 30 more rows
…
[A]s models become more monstrous, so too does the code needed to compute predictions and display them. With power comes hardship. It’s better to see the guts of the machine than to live in awe or fear of it. (McElreath 2020, 391)

yay complexity.

The overall model

The easiest way for me to think about all these estimands is as moving parts (marginal effects or partial derivatives) in a regression model. We can model the whole data-generating system (i.e. all the candidate features and levels + any subgroups or covariates we’re interested in) and then look at individual parts of that system for the different estimands we’re interested in.

Each survey respondent saw multiple pairs of hypothetical candidates—some saw 4, some 5, some 6, and so on:

candidate %>% 
  count(resID) %>% 
  mutate(pairs_seen = n / 2)
## # A tibble: 311 × 3
##    resID              n pairs_seen
##    <fct>          <int>      <dbl>
##  1 A10ZOUOZZ3EOAJ    12          6
##  2 A11F3HMX0N23V4    10          5
##  3 A12H2RTXSAQPRH     8          4
##  4 A13DPXX91VQ49Q    12          6
##  5 A13KTOZC30NBS6    10          5
##  6 A142W1RAF1TBWP    12          6
##  7 A15A4X84A1CJPF    12          6
##  8 A15Q5F9YWO45EI    12          6
##  9 A1610EPXM31F9D    12          6
## 10 A1650FELH3UL2F    10          5
## # ℹ 301 more rows
…
  atage = predictions(
    model_brms,
    by = "atage",
    allow_new_levels = TRUE
  ) %>% rename(value = atage) %>% posteriordraws(),
  atmale = predictions(
    model_brms,
    by = "atmale",
    allow_new_levels = TRUE
  ) %>% rename(value = atmale) %>% posteriordraws(),
  .id = "term"
) %>% 
  as_tibble()
posterior_mms
## # A tibble: 184,000 × 7
##    term       drawid  draw value         estimate conf.low conf.high
##    <chr>      <fct>  <dbl> <fct>            <dbl>    <dbl>     <dbl>
##  1 atmilitary 1      0.455 Did Not Serve    0.458    0.436     0.481
##  2 atmilitary 1      0.546 Served           0.542    0.520     0.564
##  3 atmilitary 2      0.459 Did Not Serve    0.458    0.436     0.481
##  4 atmilitary 2      0.531 Served           0.542    0.520     0.564
##  5 atmilitary 3      0.463 Did Not Serve    0.458    0.436     0.481
##  6 atmilitary 3      0.543 Served           0.542    0.520     0.564
##  7 atmilitary 4      0.450 Did Not Serve    0.458    0.436     0.481
##  8 atmilitary 4      0.544 Served           0.542    0.520     0.564
##  9 atmilitary 5      0.468 Did Not Serve    0.458    0.436     0.481
## 10 atmilitary 5      0.554 Served           0.542    0.520     0.564
## # ℹ 183,990 more rows
…
