The ultimate practical guide to multilevel multinomial conjoint analysis with R | Andrew Heiss – Andrew Heiss
…
Choice

The data

The data for this kind of experiment looks like this, with one row for each possible alternative (so eight rows per person, or subj), with the alternative that was selected marked as 1 in choice. Here, Subject 1 chose option E (dark, chewy, no nuts). There were 10 respondents, with 8 rows each, so there are 10 × 8 = 80 rows.

chocolate
## # A tibble: 80 × 6
##     subj choice alt   dark  soft  nuts   
##    <dbl>  <dbl> <chr> <fct> <fct> <fct>  
##  1     1      0 A     Milk  Chewy No nuts
##  2     1      0 B     Milk  Chewy Nuts   
##  3     1      0 C     Milk  Soft  No nuts
##  4     1      0 D     Milk  Soft  Nuts   
##  5     1      1 E     Dark  Chewy No nuts
##  6     1      0 F     Dark  Chewy Nuts   
##  7     1      0 G     Dark  Soft  No nuts
##  8     1      0 H     Dark  Soft  Nuts   
##  9     2      0 A     Milk  Chewy No nuts
## 10     2      0 B     Milk  Chewy Nuts   
## # ℹ 70 more rows
…
Price
$40,000
$40,000
$30,000

Choice

The data

The data for this kind of experiment has one row for each possible alternative (alt) within each set of 15 questions (ques), thus creating 3 × 15 = 45 rows per respondent (resp.id). There were 200 respondents, with 45 rows each, so there are 200 × 45 = 9,000 rows. Here, Respondent 1 chose a $30,000 gas van with 6 seats and 3 feet of cargo space in the first set of three options, a $35,000 gas van with 7 seats and 3 feet of cargo space in the second set of three options, and so on.

There’s also a column here for carpool indicating if the respondent carpools with others when commuting. It’s an individual respondent-level characteristic and is constant throughout all the questions and alternatives, and we’ll use it later.

minivans
## # A tibble: 9,000 × 9
##    resp.id  ques   alt carpool seat  cargo eng   price choice
##      <dbl> <dbl> <dbl> <fct>   <fct> <fct> <fct> <fct>  <dbl>
##  1       1     1     1 yes     6     2ft   gas   35         0
##  2       1     1     2 yes     8     3ft   hyb   30         0
##  3       1     1     3 yes     6     3ft   gas   30         1
##  4       1     2     1 yes     6     2ft   gas   30         0
##  5       1     2     2 yes     7     3ft   gas   35         1
##  6       1     2     3 yes     6     2ft   elec  35         0
##  7       1     3     1 yes     8     3ft   gas   35         1
##  8       1     3     2 yes     7     3ft   elec  30         0
##  9       1     3     3 yes     8     2ft   elec  40         0
## 10       1     4     1 yes     7     3ft   elec  40         1
## # ℹ 8,990 more rows
…
Multilevel experimental structure, with minivan choices \(\{y_1, y_2, y_3\}\) nested in sets of questions in respondents

Currently, our main outcome variable choice is binary. If we run the model with choice as the outcome with a categorical family, the model will fit, but it will go slow and {brms} will complain about it and recommend switching to regular logistic regression. The categorical family in Stan requires 2+ outcomes and a reference category. Here we have three possible options (1, 2, and 3), and we can imagine a reference category of 0 for rows that weren’t selected.

We can create a new outcome column (choice_alt) that indicates which option each respondent selected: 0 if they didn’t choose the option and 1–3 if they chose the first, second, or third option. Because of how the data is recorded, this only requires multiplying alt and choice:

minivans_choice_alt <- minivans %>% 
  mutate(choice_alt = factor(alt * choice))

minivans_choice_alt %>% 
  select(resp.id, ques, alt, seat, cargo, eng, price, choice, choice_alt)
## # A tibble: 9,000 × 9
##    resp.id  ques   alt seat  cargo eng   price choice choice_alt
##      <dbl> <dbl> <dbl> <fct> <fct> <fct> <fct>  <dbl> <fct>     
##  1       1     1     1 6     2ft   gas   35         0 0         
##  2       1     1     2 8     3ft   hyb   30         0 0         
##  3       1     1     3 6     3ft   gas   30         1 3         
##  4       1     2     1 6     2ft   gas   30         0 0         
##  5       1     2     2 7     3ft   gas   35         1 2         
##  6       1     2     3 6     2ft   elec  35         0 0         
##  7       1     3     1 8     3ft   gas   35         1 1         
##  8       1     3     2 7     3ft   elec  30         0 0         
##  9       1     3     3 8     2ft   elec  40         0 0         
## 10       1     4     1 7     3ft   elec  40         1 1         
## # ℹ 8,990 more rows
…
AMCEs

As explained in the AMCEs section for the chocolate data, in the social sciences we’re less concerned about predicted market shares and more concerned about causal effects. Holding all other features constant, what is the effect of a $5,000 increase in price or moving from 2 feet → 3 feet of storage space on the probability (or favorability) of selecting a minivan?

In the chocolate example, we were able to use marginaleffects::avg_comparisons() with the Bayesian model and get categorical contrasts automatically. This was because we cheated and used a Poisson model, since those can secretly behave like multinomial models. For the frequentist {mlogit}-based model, we had to use base R’s predict() instead and then collapse the predictions into the different contrasts we were interested in using group_by() %>% summarize(). We need to do the same thing here.

Frequentist comparisons/contrasts

To help with the intuition behind this, since it’s more complex this time, we’ll create a data frame to show all the combinations of all the feature levels (3 seats × 2 cargos × 3 engines × 3 prices). There are 54 possible combinations:

van_all_combos <- minivans %>% 
  tidyr::expand(seat, cargo, eng, price)
van_all_combos
## # A tibble: 54 × 4
##    seat  cargo eng   price
##    <fct> <fct> <fct> <fct>
##  1 6     2ft   gas   30   
##  2 6     2ft   gas   35   
##  3 6     2ft   gas   40   
##  4 6     2ft   hyb   30   
##  5 6     2ft   hyb   35   
##  6 6     2ft   hyb   40   
##  7 6     2ft   elec  30   
##  8 6     2ft   elec  35   
##  9 6     2ft   elec  40   
## 10 6     3ft   gas   30   
## # ℹ 44 more rows
…
# Probability of selecting each alternative within each choice set
head(model_minivans_mlogit$probabilities)
##         1      2       3
## 1 0.15787 0.2076 0.63451
## 2 0.68246 0.2583 0.05922
## 3 0.67183 0.2881 0.04003
## 4 0.05254 0.3054 0.64204
## 5 0.64785 0.1153 0.23682
## 6 0.10199 0.6218 0.27624

Working with data like this, though, is messy and untidy. Fortunately again, if we use model.frame(), {mlogit} will return a long data frame with probabilities for each of the alternatives within each of the choice sets, or 9,000 rows (200 respondents × 15 sets of questions × 3 options within each question). This is the original data we used for the model, only now with columns for the fitted values on the logit scale (the linpred column) and the probability scale (the probabilities column).

model.frame(model_minivans_mlogit)
## # A tibble: 9,000 × 8
## # Index:    3000 (choice.id) x 3 (alt)
## # Balanced: yes
## # Nesting:  choice.id (resp.id)
##    choice seat  cargo eng   price idx   probabilities linpred
##    <lgl>  <fct> <fct> <fct> <fct> <idx>         <dbl>   <dbl>
##  1 FALSE  6     2ft   gas   35    1:1          0.158   -0.914
##  2 FALSE  8     3ft   hyb   30    1:2          0.208   -0.640
##  3 TRUE   6     3ft   gas   30    1:3          0.635    0.477
##  4 FALSE  6     2ft   gas   30    2:1          0.682    0    
##  5 TRUE   7     3ft   gas   35    2:2          0.258   -0.971
##  6 FALSE  6     2ft   elec  35    2:3          0.0592  -2.44 
##  7 TRUE   8     3ft   gas   35    3:1          0.672   -0.742
##  8 FALSE  7     3ft   elec  30    3:2          0.288   -1.59 
##  9 FALSE  8     2ft   elec  40    3:3          0.0400  -3.56 
## 10 TRUE   7     3ft   elec  40    4:1          0.0525  -3.31 
## # ℹ 8,990 more rows

That’s neat, but it’s still a lot of data. Remember van_all_combos from earlier, with the 54 unique combinations of seat, cargo, engine, and price? We want to know the probabilities for each of those combinations.

We can find those with some grouping and summarizing, finding the average probability within each of the combinations:

all_preds_mlogit <- model.frame(model_minivans_mlogit) %>% 
  group_by(seat, cargo, eng, price) %>% 
  summarize(estimate = mean(probabilities))
all_preds_mlogit
## # A tibble: 54 × 5
## # Groups:   seat, cargo, eng [18]
##    seat  cargo eng   price estimate
##    <fct> <fct> <fct> <fct>    <dbl>
##  1 6     2ft   gas   30      0.695 
##  2 6     2ft   gas   35      0.491 
##  3 6     2ft   gas   40      0.311 
##  4 6     2ft   hyb   30      0.499 
##  5 6     2ft   hyb   35      0.300 
##  6 6     2ft   hyb   40      0.161 
##  7 6     2ft   elec  30      0.348 
##  8 6     2ft   elec  35      0.173 
##  9 6     2ft   elec  40      0.0872
## 10 6     3ft   gas   30      0.768 
## # ℹ 44 more rows
…
newdata_all_combos <- minivans %>% 
  tidyr::expand(seat, cargo, eng, price) %>% 
  mutate(resp.id = 1)

all_preds_brms <- model_minivans_categorical_brms %>% 
  epred_draws(newdata = newdata_all_combos) %>% 
  filter(.category == 0) %>% 
  mutate(.epred = 1 - .epred)

To make sure it worked, here are the posterior medians for all the different levels. It’s roughly the same as what we found with in all_preds_mlogit:

all_preds_brms %>% 
  group_by(seat, cargo, eng, price) %>% 
  median_qi(.epred)
## # A tibble: 54 × 10
##    seat  cargo eng   price .epred .lower .upper .width .point .interval
##    <fct> <fct> <fct> <fct>  <dbl>  <dbl>  <dbl>  <dbl> <chr>  <chr>    
##  1 6     2ft   gas   30    0.682  0.651   0.713   0.95 median qi       
##  2 6     2ft   gas   35    0.485  0.451   0.520   0.95 median qi       
##  3 6     2ft   gas   40    0.305  0.275   0.338   0.95 median qi       
##  4 6     2ft   hyb   30    0.502  0.466   0.537   0.95 median qi       
##  5 6     2ft   hyb   35    0.306  0.276   0.338   0.95 median qi       
##  6 6     2ft   hyb   40    0.171  0.150   0.194   0.95 median qi       
##  7 6     2ft   elec  30    0.339  0.306   0.371   0.95 median qi       
##  8 6     2ft   elec  35    0.183  0.161   0.207   0.95 median qi       
##  9 6     2ft   elec  40    0.0952 0.0819  0.110   0.95 median qi       
## 10 6     3ft   gas   30    0.769  0.743   0.795   0.95 median qi       
## # ℹ 44 more rows
…
hahahaha check out those mountain ranges. All those peaks come from combining the 27 different 2ft- and 3ft- posterior distributions for all the different combinations of other feature levels.

To get the actual marginal mean for cargo space, we need to marginalize out (or average out) all those other covariates. To do this, we need to group by the cargo column and the .draw column so that we find the average within each set of MCMC draws. To help with the intuition, look how many rows are in each of these groups of cargo and .draw—there are 27 different estimates for each of the 4,000 draws for 2 feet and 27 different estimates for each of the 4,000 draws for 3 feet. We want to collapse (or marginalize) those 27 rows into just one average.

all_preds_brms %>% 
  group_by(cargo, .draw) %>% 
  summarize(nrows = n())
## # A tibble: 8,000 × 3
## # Groups:   cargo [2]
##    cargo .draw nrows
##    <fct> <int> <int>
##  1 2ft       1    27
##  2 2ft       2    27
##  3 2ft       3    27
##  4 2ft       4    27
##  5 2ft       5    27
##  6 2ft       6    27
##  7 2ft       7    27
##  8 2ft       8    27
##  9 2ft       9    27
## 10 2ft      10    27
## # ℹ 7,990 more rows
…
For the longest time this threw me off because it’s slightly different from the two different notations we just reviewed (full βs vs. offsets from global β), and I figured that specifying a model like this with {brms} was impossible. The main reason for my confusion is that there are two different datasets involved in this model, and {brms} can only really work with one dataset.

In raw Stan (like in this tutorial on conjoint hierarchical Bayes models, or in this example of a different conjoint hierarchical model), you’d typically work with two different datasets or matrices: one \(X\) with feature levels and one \(Z\) with respondent-level characteristics. (This is actually the recommended way to write hierarchical models in raw Stan!).

Here’s what separate \(X\) and \(Z\) matrices would look like with the minivan data—X contains the full data without respondent-level covariates like carpool and it has 9,000 rows; Z contains only respondent-level characteristics like carpool and it only has 200 rows (one per respondent).

X <- minivans %>% select(-carpool)
X
## # A tibble: 9,000 × 8
##    resp.id  ques   alt seat  cargo eng   price choice
##      <dbl> <dbl> <dbl> <fct> <fct> <fct> <fct>  <dbl>
##  1       1     1     1 6     2ft   gas   35         0
##  2       1     1     2 8     3ft   hyb   30         0
##  3       1     1     3 6     3ft   gas   30         1
##  4       1     2     1 6     2ft   gas   30         0
##  5       1     2     2 7     3ft   gas   35         1
##  6       1     2     3 6     2ft   elec  35         0
##  7       1     3     1 8     3ft   gas   35         1
##  8       1     3     2 7     3ft   elec  30         0
##  9       1     3     3 8     2ft   elec  40         0
## 10       1     4     1 7     3ft   elec  40         1
## # ℹ 8,990 more rows

Z <- minivans %>% 
  # Only keep the first row of each respondent
  group_by(resp.id) %>% slice(1) %>% ungroup() %>% 
  # Only keep the respondent-level columns
  select(resp.id, carpool)
Z
## # A tibble: 200 × 2
##    resp.id carpool
##      <dbl> <fct>  
##  1       1 yes    
##  2       2 no     
##  3       3 no     
##  4       4 no     
##  5       5 yes    
##  6       6 no     
##  7       7 no     
##  8       8 yes    
##  9       9 no     
## 10      10 no     
## # ℹ 190 more rows
…
This is so cool! In general, the market share for these six hypothetical products is roughly the same across carpoolers and non-carpoolers, with one obvious exception—among non-carpoolers, the $30,000 8-passenger gas minivan with 2 feet of space has 26% of the market, while among carpoolers it has 42%. Individuals who carpool apparently really care about the number of passengers their vehicle can carry.

AMCEs

To find the average marginal component effects (AMCEs), or the causal effect of moving one of these features to another value, holding all other variables constant, we can go through the same process as before. We’ll calculate the predicted probabilities of choosing option 0, 1, 2, and 3 across a full grid of all the combinations of feature levels and carpool status. We’ll then filter those predictions to only look at option 0 and reverse the predicted probabilities. Again, that feels weird, but it’s a neat little trick—if there’s a 33% chance that someone will select a specific combination of features, that would imply a 66% chance of not selecting it and an 11% chance of selecting it when it appears in option 1, option 2, and option 3. Rather than adding the probabilities within those three options together, we can do 100% − 66% to get the same 33% value, only it’s automatically combined.

Earlier we had 54 combinations—now we have 108 (54 × 2). We’ll set resp.id to one that’s not in the dataset (201) so that these effects all deal with a generic hypothetical respondent (we could also do some fancy “integrating out” work and find population-level averages; see here for more about that).

newdata_all_combos_carpool <- minivans %>% 
  tidyr::expand(seat, cargo, eng, price, carpool) %>% 
  mutate(resp.id = 201)
newdata_all_combos_carpool
## # A tibble: 108 × 6
##    seat  cargo eng   price carpool resp.id
##    <fct> <fct> <fct> <fct> <fct>     <dbl>
##  1 6     2ft   gas   30    no          201
##  2 6     2ft   gas   30    yes         201
##  3 6     2ft   gas   35    no          201
##  4 6     2ft   gas   35    yes         201
##  5 6     2ft   gas   40    no          201
##  6 6     2ft   gas   40    yes         201
##  7 6     2ft   hyb   30    no          201
##  8 6     2ft   hyb   30    yes         201
##  9 6     2ft   hyb   35    no          201
## 10 6     2ft   hyb   35    yes         201
## # ℹ 98 more rows
…
