Demystifying causal inference estimands: ATE, ATT, and ATU | Andrew Heiss – Andrew Heiss
…
# See if it worked
nets_with_weights |> 
  select(id, income, health, net, malaria_risk, propensity, wts_ate)
## # A tibble: 1,500 × 7
##       id income health   net malaria_risk propensity wts_ate
##    <int>  <dbl>  <dbl> <int>        <dbl>      <dbl>   <dbl>
##  1     1    379     56     0         50.1     0.393     1.65
##  2     2    528     39     0         59.4     0.427     1.75
##  3     3    608     54     1         34.9     0.760     1.32
##  4     4    265     21     0         82.8     0.0368    1.04
##  5     5    543     51     0         42.5     0.622     2.65
##  6     6    551     51     1         38.9     0.636     1.57
##  7     7    443     49     1         43.5     0.412     2.43
##  8     8    445     32     1         56.1     0.213     4.69
##  9     9    444     39     1         48       0.286     3.50
## 10    10    411     36     1         41.1     0.209     4.78
## # ℹ 1,490 more rows
…
